.........
----------------------------------------------------------------------
Ran 9 tests in 0.001s

OK
Name               Stmts   Miss Branch BrPart  Cover   Missing
--------------------------------------------------------------
Diplomacy.py          62      0     42      0   100%
TestDiplomacy.py      49      0      0      0   100%
--------------------------------------------------------------
TOTAL                111      0     42      0   100%
