....
----------------------------------------------------------------------
Ran 4 tests in 0.001s

OK
Name               Stmts   Miss Branch BrPart  Cover   Missing
--------------------------------------------------------------
Diplomacy.py          70      0     46      0   100%
TestDiplomacy.py      24      0      0      0   100%
--------------------------------------------------------------
TOTAL                 94      0     46      0   100%
