............
----------------------------------------------------------------------
Ran 12 tests in 0.002s

OK
Name               Stmts   Miss Branch BrPart  Cover   Missing
--------------------------------------------------------------
Diplomacy.py          61      0     44      0   100%
TestDiplomacy.py      52      0      0      0   100%
--------------------------------------------------------------
TOTAL                113      0     44      0   100%
