........
----------------------------------------------------------------------
Ran 8 tests in 0.005s

OK
Name               Stmts   Miss Branch BrPart  Cover   Missing
--------------------------------------------------------------
Diplomacy.py          69      0     48      0   100%
TestDiplomacy.py      41      0      0      0   100%
--------------------------------------------------------------
TOTAL                110      0     48      0   100%
